<svg xmlns="http://www.w3.org/2000/svg" width="170" height="170" id="boat_asset" style="fill: Darkgray ;stroke :none" viewBox="0 0  34 34">
<path d=" M 17,1 a 15,15 0 0 1 0,30 a 15,15 0 0 1 0,-30 z M 17,3 a 13,13 0 0 0 0,26 a 13,13 0 0 0 0,-26 z M 6,17 a 10,8 0 0 1 4,5 l 16,0 l 1,-5 l -4,0 l 1,-6 l -3,0 l -0.5,3 l -8.5,0 l -0.5,3z M 14,15 a 1,1 0 0 1 0,2 a 1,1 0 0 1 0,-2 z M 17,15 a 1,1 0 0 1 0,2 a 1,1 0 0 1 0,-2 z M 20,15 a 1,1 0 0 1 0,2 a 1,1 0 0 1 0,-2 z 
          " />
</svg>